…
Next, we will graph the number of attacks per contry by type of attack for each of the countries where the ten cities we are focusing on is located.

``` r
numAttacksCountryType
```

    ## # A tibble: 14,173 x 5
    ## # Groups:   iyear, country_txt, city [11,235]
    ##    iyear country_txt city              attacktype1     n
    ##    <int> <chr>       <chr>                   <int> <int>
    ##  1  2001 Colombia    Acacias district            6     1
    ##  2  2001 Colombia    Aguachica                   7     1
    ##  3  2001 Colombia    Alejandria                  2     1
    ##  4  2001 Colombia    Algeciras                   2     1
    ##  5  2001 Colombia    Alto de Mayo                2     1
    ##  6  2001 Colombia    Alto de San Juan            2     1
    ##  7  2001 Colombia    Amalfi                      2     1
    ##  8  2001 Colombia    Araquita district           3     1
    ##  9  2001 Colombia    Aratoca district            3     1
    ## 10  2001 Colombia    Arauca                      6     1
    ## # ... with 14,163 more rows
…
